Randomization
…
  # Randomizing SP treatment factor to WP plots (restricted)
  group_by(wplot) %>%
  mutate(nrate_kgha = sample(nrate_kgha)) %>%
  
  # Creating SP plot numbers 
  mutate(splot = paste0(wplot,"-",1:3)) %>%
  ungroup()

sp_rcbd_rand

# A tibble: 36 × 3
   nrate_kgha wplot splot
        <dbl> <dbl> <chr>
 1        100   101 101-1
 2        200   101 101-2
 3          0   101 101-3
 4        200   102 102-1
 5        100   102 102-2
 6          0   102 102-3
 7        200   103 103-1
 8        100   103 103-2
 9          0   103 103-3
10          0   201 201-1
# ℹ 26 more rows

Joining WP and SP into one object

spp_rcbd_rand <- wp_rcbd_rand %>%
  right_join(sp_rcbd_rand) %>%
  mutate(trtname = paste0(krate_kgha,"+",nrate_kgha))

spp_rcbd_rand

# A tibble: 36 × 6
   krate_kgha block wplot nrate_kgha splot trtname
        <dbl> <int> <dbl>      <dbl> <chr> <chr>  
 1         60     1   101        100 101-1 60+100 
 2         60     1   101        200 101-2 60+200 
 3         60     1   101          0 101-3 60+0   
 4          0     1   102        200 102-1 0+200  
 5          0     1   102        100 102-2 0+100  
 6          0     1   102          0 102-3 0+0    
 7         30     1   103        200 103-1 30+200 
 8         30     1   103        100 103-2 30+100 
 9         30     1   103          0 103-3 30+0   
10         60     2   201          0 201-1 60+0   
# ℹ 26 more rows
…
spp_rcbd_layout <- spp_rcbd_rand %>%
  # Defining number of rows and columns in the field for plotting purposes
  mutate(row = rep(1:4, each = 9)) %>%
  mutate(col = rep(seq(from = 1, 
                       to = 9, #total number of treatments, 
                       by = 1), 
                   times = 4 #total number of blocks
  )) %>%
  # Creating plot and trtname labels for plotting
  mutate(lab = paste0(splot, "\n", trtname))

spp_rcbd_layout

# A tibble: 36 × 9
   krate_kgha block wplot nrate_kgha splot trtname   row   col lab            
        <dbl> <int> <dbl>      <dbl> <chr> <chr>   <int> <dbl> <chr>          
 1         60     1   101        100 101-1 60+100      1     1 "101-1\n60+100"
 2         60     1   101        200 101-2 60+200      1     2 "101-2\n60+200"
 3         60     1   101          0 101-3 60+0        1     3 "101-3\n60+0"  
 4          0     1   102        200 102-1 0+200       1     4 "102-1\n0+200" 
 5          0     1   102        100 102-2 0+100       1     5 "102-2\n0+100" 
 6          0     1   102          0 102-3 0+0         1     6 "102-3\n0+0"   
 7         30     1   103        200 103-1 30+200      1     7 "103-1\n30+200"
 8         30     1   103        100 103-2 30+100      1     8 "103-2\n30+100"
 9         30     1   103          0 103-3 30+0        1     9 "103-3\n30+0"  
10         60     2   201          0 201-1 60+0        2     1 "201-1\n60+0"  
# ℹ 26 more rows
…
